%YAML 1.1
%TAG !u! tag:unity3d.com,2011:
--- !u!162 &1
EditorUserSettings:
  m_ObjectHideFlags: 0
  serializedVersion: 4
  m_ConfigSettings:
    RecentlyUsedScenePath-0:
      value: 22424703114646680e0b0227036c6c111b07142f1f2b233e2867083debf42d
      flags: 0
    RecentlyUsedScenePath-1:
      value: 224247031146467c1f0f1f31362f500713050b65082d2b3f620d183eedc72639f1f410e5e82d3a2e2a4cfa320d2a18
      flags: 0
    RecentlyUsedScenePath-2:
      value: 22424703114646760c1a09301922530359300a2b3f3b003c223e1821f1af103defe879cde237301b2b03fc2f22320e28f7181a45e305031f08
      flags: 0
    RecentlyUsedScenePath-3:
      value: 2242470311464668190f1e3615317e0305120c39631c2e393f2d2d36f0f33b36c1e838fdf53533303c10a00f073b0f3ae1453907f7120d191e1bf30a5fea1e1a05dc
      flags: 0
    vcSharedLogLevel:
      value: 0d5e400f0650
      flags: 0
  m_VCAutomaticAdd: 1
  m_VCDebugCom: 0
  m_VCDebugCmd: 0
  m_VCDebugOut: 0
  m_SemanticMergeMode: 2
  m_VCShowFailedCheckout: 1
  m_VCOverwriteFailedCheckoutAssets: 1
  m_VCProjectOverlayIcons: 1
  m_VCHierarchyOverlayIcons: 1
  m_VCOtherOverlayIcons: 1
  m_VCAllowAsyncUpdate: 1
